<svg id="icon.zip" xmlns="http://www.w3.org/2000/svg" width="23.057" height="32.075" viewBox="0 0 23.057 32.075">
  <g id="Base">
    <g id="Base-2" data-name="Base" transform="translate(-1532 -1138.925)" fill="none">
      <path d="M1551,1171h-15a4,4,0,0,1-4-4v-24a4,4,0,0,1,4-4h11v8h8v20A4,4,0,0,1,1551,1171Z" stroke="none"/>
      <path d="M 1550.999755859375 1169.999877929688 C 1552.654174804688 1169.999877929688 1554.000244140625 1168.654296875 1554.000244140625 1167.000366210938 L 1554.000244140625 1147.999633789063 L 1547.000122070313 1147.999633789063 L 1546.000122070313 1147.999633789063 L 1546.000122070313 1146.999633789063 L 1546.000122070313 1140.00048828125 L 1536.000366210938 1140.00048828125 C 1534.345947265625 1140.00048828125 1532.999877929688 1141.346069335938 1532.999877929688 1143 L 1532.999877929688 1167.000366210938 C 1532.999877929688 1168.654296875 1534.345947265625 1169.999877929688 1536.000366210938 1169.999877929688 L 1550.999755859375 1169.999877929688 M 1550.999755859375 1170.999877929688 L 1536.000366210938 1170.999877929688 C 1533.79443359375 1170.999877929688 1531.999877929688 1169.205688476563 1531.999877929688 1167.000366210938 L 1531.999877929688 1143 C 1531.999877929688 1140.794677734375 1533.79443359375 1139.00048828125 1536.000366210938 1139.00048828125 L 1547.000122070313 1139.00048828125 L 1547.000122070313 1146.999633789063 L 1555.000244140625 1146.999633789063 L 1555.000244140625 1167.000366210938 C 1555.000244140625 1169.205688476563 1553.205688476563 1170.999877929688 1550.999755859375 1170.999877929688 Z" stroke="none" fill="#ffbe00"/>
    </g>
    <path id="Polygon_7" data-name="Polygon 7" d="M4.823.177a.25.25,0,0,1,.354,0l4.4,4.4A.25.25,0,0,1,9.4,5H.6a.25.25,0,0,1-.177-.427Z" transform="translate(19.521 10.607) rotate(-135)" fill="#ffbe00"/>
  </g>
  <g id="Borders" transform="translate(-27 -7.925)">
    <line id="Line_20" data-name="Line 20" x2="22" transform="translate(27.5 28.5)" fill="none" stroke="#ffbe00" stroke-width="1"/>
  </g>
  <text id="zip" transform="translate(3 22.075)" fill="#ffbe00" font-size="6" font-family="Raleway-SemiBold, Raleway" font-weight="600"><tspan x="0" y="6">zip</tspan></text>
  <g id="zip-2" data-name="zip" transform="translate(-27 -7.925)">
    <path id="Polygon_8" data-name="Polygon 8" d="M1.016,5.411a1,1,0,0,1,1.968,0l.8,4.41A1,1,0,0,1,2.8,11H1.2A1,1,0,0,1,.214,9.821Z" transform="translate(31 15)" fill="#ffbe00"/>
    <rect id="Rectangle_63" data-name="Rectangle 63" width="2" height="2" rx="1" transform="translate(32 17)" fill="#ffbe00"/>
    <rect id="Rectangle_64" data-name="Rectangle 64" width="2" height="2" rx="1" transform="translate(32 14.5)" fill="#ffbe00"/>
    <rect id="Rectangle_65" data-name="Rectangle 65" width="2" height="2" rx="1" transform="translate(32 12)" fill="#ffbe00"/>
    <rect id="Rectangle_66" data-name="Rectangle 66" width="2" height="2" rx="1" transform="translate(32 9.5)" fill="#ffbe00"/>
  </g>
</svg>
