<svg id="icon.xls" xmlns="http://www.w3.org/2000/svg" width="23.057" height="32.075" viewBox="0 0 23.057 32.075">
  <g id="Document_Base" data-name="Document Base">
    <g id="Base" transform="translate(-1532 -1138.925)" fill="none">
      <path d="M1551,1171h-15a4,4,0,0,1-4-4v-24a4,4,0,0,1,4-4h11v8h8v20A4,4,0,0,1,1551,1171Z" stroke="none"/>
      <path d="M 1550.999755859375 1169.999877929688 C 1552.654174804688 1169.999877929688 1554.000244140625 1168.654296875 1554.000244140625 1167.000366210938 L 1554.000244140625 1147.999633789063 L 1547.000122070313 1147.999633789063 L 1546.000122070313 1147.999633789063 L 1546.000122070313 1146.999633789063 L 1546.000122070313 1140.00048828125 L 1536.000366210938 1140.00048828125 C 1534.345947265625 1140.00048828125 1532.999877929688 1141.346069335938 1532.999877929688 1143 L 1532.999877929688 1167.000366210938 C 1532.999877929688 1168.654296875 1534.345947265625 1169.999877929688 1536.000366210938 1169.999877929688 L 1550.999755859375 1169.999877929688 M 1550.999755859375 1170.999877929688 L 1536.000366210938 1170.999877929688 C 1533.79443359375 1170.999877929688 1531.999877929688 1169.205688476563 1531.999877929688 1167.000366210938 L 1531.999877929688 1143 C 1531.999877929688 1140.794677734375 1533.79443359375 1139.00048828125 1536.000366210938 1139.00048828125 L 1547.000122070313 1139.00048828125 L 1547.000122070313 1146.999633789063 L 1555.000244140625 1146.999633789063 L 1555.000244140625 1167.000366210938 C 1555.000244140625 1169.205688476563 1553.205688476563 1170.999877929688 1550.999755859375 1170.999877929688 Z" stroke="none" fill="#0f7b3f"/>
    </g>
    <path id="Polygon_7" data-name="Polygon 7" d="M4.823.177a.25.25,0,0,1,.354,0l4.4,4.4A.25.25,0,0,1,9.4,5H.6a.25.25,0,0,1-.177-.427Z" transform="translate(19.521 10.607) rotate(-135)" fill="#0f7b3f"/>
  </g>
  <text id="xls" transform="translate(3 22.075)" fill="#0f7b3f" font-size="6" font-family="Raleway-SemiBold, Raleway" font-weight="600"><tspan x="0" y="6">xls</tspan></text>
  <g id="Table" transform="translate(-27 -7.925)">
    <rect id="Rectangle_48" data-name="Rectangle 48" width="4" height="3" transform="translate(30 26)" fill="#0f7b3f"/>
    <rect id="Rectangle_49" data-name="Rectangle 49" width="4" height="3" transform="translate(30 22.5)" fill="#2dac66"/>
    <rect id="Rectangle_50" data-name="Rectangle 50" width="4" height="3" transform="translate(30 19)" fill="#72e3a5"/>
    <rect id="Rectangle_51" data-name="Rectangle 51" width="4" height="3" transform="translate(34.5 26)" fill="#2dac66"/>
    <rect id="Rectangle_52" data-name="Rectangle 52" width="4" height="3" transform="translate(34.5 22.5)" fill="#2dac66"/>
    <rect id="Rectangle_53" data-name="Rectangle 53" width="4" height="3" transform="translate(34.5 19)" fill="#72e3a5"/>
    <rect id="Rectangle_54" data-name="Rectangle 54" width="4" height="3" transform="translate(39 26)" fill="#72e3a5"/>
    <rect id="Rectangle_55" data-name="Rectangle 55" width="4" height="3" transform="translate(39 22.5)" fill="#72e3a5"/>
    <rect id="Rectangle_56" data-name="Rectangle 56" width="4" height="3" transform="translate(39 19)" fill="#72e3a5"/>
  </g>
</svg>
