<svg id="icon.png" xmlns="http://www.w3.org/2000/svg" width="24.5" height="32.075" viewBox="0 0 24.5 32.075">
  <g id="Base" transform="translate(1)">
    <g id="Base-2" data-name="Base" transform="translate(-1532 -1138.925)" fill="none">
      <path d="M1551,1171h-15a4,4,0,0,1-4-4v-24a4,4,0,0,1,4-4h11v8h8v20A4,4,0,0,1,1551,1171Z" stroke="none"/>
      <path d="M 1550.999755859375 1169.999877929688 C 1552.654174804688 1169.999877929688 1554.000244140625 1168.654296875 1554.000244140625 1167.000366210938 L 1554.000244140625 1147.999633789063 L 1547.000122070313 1147.999633789063 L 1546.000122070313 1147.999633789063 L 1546.000122070313 1146.999633789063 L 1546.000122070313 1140.00048828125 L 1536.000366210938 1140.00048828125 C 1534.345947265625 1140.00048828125 1532.999877929688 1141.346069335938 1532.999877929688 1143 L 1532.999877929688 1167.000366210938 C 1532.999877929688 1168.654296875 1534.345947265625 1169.999877929688 1536.000366210938 1169.999877929688 L 1550.999755859375 1169.999877929688 M 1550.999755859375 1170.999877929688 L 1536.000366210938 1170.999877929688 C 1533.79443359375 1170.999877929688 1531.999877929688 1169.205688476563 1531.999877929688 1167.000366210938 L 1531.999877929688 1143 C 1531.999877929688 1140.794677734375 1533.79443359375 1139.00048828125 1536.000366210938 1139.00048828125 L 1547.000122070313 1139.00048828125 L 1547.000122070313 1146.999633789063 L 1555.000244140625 1146.999633789063 L 1555.000244140625 1167.000366210938 C 1555.000244140625 1169.205688476563 1553.205688476563 1170.999877929688 1550.999755859375 1170.999877929688 Z" stroke="none" fill="#444"/>
    </g>
    <path id="Polygon_7" data-name="Polygon 7" d="M4.823.177a.25.25,0,0,1,.354,0l4.4,4.4A.25.25,0,0,1,9.4,5H.6a.25.25,0,0,1-.177-.427Z" transform="translate(19.521 10.607) rotate(-135)" fill="#444"/>
  </g>
  <g id="Borders" transform="translate(-26 -7.925)">
    <line id="Line_20" data-name="Line 20" x2="22" transform="translate(27.5 28.5)" fill="none" stroke="#444" stroke-width="1"/>
  </g>
  <g id="Fills" transform="translate(-26 -7.925)">
    <path id="Polygon_4" data-name="Polygon 4" d="M8.775.763a1,1,0,0,1,1.45,0L17.4,8.311A1,1,0,0,1,16.671,10H2.329A1,1,0,0,1,1.6,8.311Z" transform="translate(26 19)" fill="#444"/>
    <path id="Polygon_5" data-name="Polygon 5" d="M3.7,1.067a1,1,0,0,1,1.6,0L7.8,4.4A1,1,0,0,1,7,6H2a1,1,0,0,1-.8-1.6Z" transform="translate(41.5 23)" fill="#444"/>
  </g>
  <text id="png" transform="translate(4 22.075)" fill="#444" font-size="6" font-family="Raleway-SemiBold, Raleway" font-weight="600"><tspan x="0" y="6">png</tspan></text>
</svg>
